%YAML 1.1
%TAG !u! tag:unity3d.com,2011:
--- !u!114 &11400000
MonoBehaviour:
  m_ObjectHideFlags: 0
  m_CorrespondingSourceObject: {fileID: 0}
  m_PrefabInstance: {fileID: 0}
  m_PrefabAsset: {fileID: 0}
  m_GameObject: {fileID: 0}
  m_Enabled: 1
  m_EditorHideFlags: 0
  m_Script: {fileID: 11500000, guid: c0922567c81c9644a88c48e4c5c39990, type: 3}
  m_Name: Start A
  m_EditorClassIdentifier: 
  storyText: 'You see 2 doors.


    What are you going to do?


    1. Open blue door.

    2. Open red door.'
  nextStates:
  - {fileID: 11400000, guid: a52e2cf35d802774c9605d16c7de03d3, type: 2}
  - {fileID: 11400000, guid: a52e2cf35d802774c9605d16c7de03d3, type: 2}
  - {fileID: 11400000, guid: a52e2cf35d802774c9605d16c7de03d3, type: 2}
  - {fileID: 11400000, guid: a52e2cf35d802774c9605d16c7de03d3, type: 2}
  - {fileID: 11400000, guid: a52e2cf35d802774c9605d16c7de03d3, type: 2}
