%YAML 1.1
%TAG !u! tag:unity3d.com,2011:
--- !u!114 &11400000
MonoBehaviour:
  m_ObjectHideFlags: 0
  m_CorrespondingSourceObject: {fileID: 0}
  m_PrefabInstance: {fileID: 0}
  m_PrefabAsset: {fileID: 0}
  m_GameObject: {fileID: 0}
  m_Enabled: 1
  m_EditorHideFlags: 0
  m_Script: {fileID: 11500000, guid: c0922567c81c9644a88c48e4c5c39990, type: 3}
  m_Name: State A1
  m_EditorClassIdentifier: 
  storyText: You see kitchen.
  nextStates:
  - {fileID: 11400000, guid: 99fc384900630eb46ad8f60f7c1fd0f4, type: 2}
  - {fileID: 11400000, guid: 99fc384900630eb46ad8f60f7c1fd0f4, type: 2}
